Test number,Expected dmin,Returned dmin,Passed,Array Elements
1,1,1,TRUE,1,2,3,4,5,6,7,8,9,10,
2,10,10,TRUE,1,11,22,34,47,61,76,92,109,152,
3,0,0,TRUE,1,1,3,4,5,6,7,8,9,10,
4,9,9,TRUE,1,11,21,31,41,51,61,70,81,91,
5,998,998,TRUE,1,1000,2000,3000,4000,5000,6000,7000,8000,8998,
6,5,5,TRUE,100,90,80,70,60,50,40,30,20,95,
7,2,2,TRUE,1,5,9,3,13,17,21,25,29,33,
8,10,10,TRUE,100000,20,5000,3000,50000,40000,66000,90000,500,100010,
9,10,10,TRUE,30,60,90,120,150,180,190,220,250,280,
10,5,5,TRUE,66,77,88,99,44,55,33,22,11,72,
