74,74
13,13
82,82
76,76
12,12
88,88
83,83
20,20
57,57
Median,74
Index,0
28,28
9,9
50,50
26,26
17,17
50,50
90,90
87,87
90,90
Median,50
Index,2
87,87
88,88
15,15
66,66
88,88
89,89
87,87
10,10
44,44
Median,87
Index,0
72,72
73,73
27,27
13,13
1,1
38,38
11,11
83,83
58,58
Median,38
Index,5
72,72
80,80
87,87
46,46
60,60
72,72
4,4
33,33
77,77
Median,72
Index,0
20,20
85,85
62,62
62,62
36,36
69,69
67,67
67,67
43,43
Median,62
Index,2
36,36
38,38
59,59
16,16
16,16
28,28
64,64
72,72
3,3
Median,36
Index,0
29,29
25,25
79,79
5,5
14,14
9,9
90,90
75,75
74,74
Median,29
Index,0
63,63
12,12
29,29
69,69
86,86
45,45
4,4
60,60
40,40
Median,45
Index,5
12,12
35,35
19,19
69,69
5,5
72,72
4,4
17,17
37,37
Median,19
Index,2
